{
  "tags": {
    "allowUnknownTags": false
  },
  "source": {
    "include": "./src",
    "includePattern": ".js$",
    "excludePattern": "(node_modules/|docs)"
  },
  "plugins": [
    "plugins/markdown"
  ],
  "opts": {
    "template": "./node_modules/docdash/",
    "encoding": "utf8",
    "destination": "public/doc/",
    "recurse": true,
    "verbose": true
  },
  "templates": {
    "cleverLinks": false,
    "monospaceLinks": false,
    "default": {
      "outputSourceFiles": true,
      "outputSourcePath": true
    }
  }
}