{
  "env": "development",
  "port": 3000,
  "logType": "dev",
  "zillowApi": {
    "url": "http://www.zillow.com/webservice/GetSearchResults.htm",
    "key": "X1-ZWz1dyb53fdhjf_6jziz"
  },
  "googleMapsGeocodingApi": {
    "key": "AIzaSyCa_6Vq9O1UO6miQXqxOWy5AvWlbaRDV1w",
    "maps": "AIzaSyCbxzEt6Bo_0wICs9qAzdWM0l0WEpMu_fg"
  }
}